…
    ## # A tibble: 1 x 4
    ##                                             dataset_identifier
    ##                                                          <chr>
    ## 1 kenya-conflict-2012-2014_KEN_conflict_2012_to_date_26Jan2015
    ## # ... with 3 more variables: hdx_rel_url <chr>, id <chr>, csv <list>

``` r
kenya %>%
  unnest()
```

    ## # A tibble: 5,414 x 31
    ##                                              dataset_identifier
    ##                                                           <chr>
    ##  1 kenya-conflict-2012-2014_KEN_conflict_2012_to_date_26Jan2015
    ##  2 kenya-conflict-2012-2014_KEN_conflict_2012_to_date_26Jan2015
    ##  3 kenya-conflict-2012-2014_KEN_conflict_2012_to_date_26Jan2015
    ##  4 kenya-conflict-2012-2014_KEN_conflict_2012_to_date_26Jan2015
    ##  5 kenya-conflict-2012-2014_KEN_conflict_2012_to_date_26Jan2015
    ##  6 kenya-conflict-2012-2014_KEN_conflict_2012_to_date_26Jan2015
    ##  7 kenya-conflict-2012-2014_KEN_conflict_2012_to_date_26Jan2015
    ##  8 kenya-conflict-2012-2014_KEN_conflict_2012_to_date_26Jan2015
    ##  9 kenya-conflict-2012-2014_KEN_conflict_2012_to_date_26Jan2015
    ## 10 kenya-conflict-2012-2014_KEN_conflict_2012_to_date_26Jan2015
    ## # ... with 5,404 more rows, and 30 more variables: hdx_rel_url <chr>,
    ## #   id <chr>, Date <chr>, Year <int>, Month <int>, Day <int>,
    ## #   Country <chr>, `Admin 1` <chr>, Location <chr>, Deaths <int>,
    ## #   Injuries <int>, Displaced <chr>, Affected <int>, Source <chr>,
    ## #   Other <chr>, `Humanitarian Response` <chr>, `Livestock Deaths` <chr>,
    ## #   `Houses Burnt` <chr>, X17 <chr>, X18 <chr>, X19 <chr>, X20 <chr>,
    ## #   X21 <chr>, X22 <chr>, X23 <chr>, X24 <chr>, X25 <chr>, X26 <chr>,
    ## #   X27 <chr>, X28 <chr>
…
    ## Reading layer `afg_roads_lin_oasis_osmap' from data source `\R\hdxr\afg_roads_lin_aims_osmap' using driver `ESRI Shapefile'
    ## replacing null geometries with empty geometries
    ## Simple feature collection with 6645 features and 9 fields (with 3 geometries empty)
    ## geometry type:  GEOMETRY
    ## dimension:      XY
    ## bbox:           xmin: 60.49997 ymin: 29.49975 xmax: 74.69596 ymax: 38.48688
    ## epsg (SRID):    4326
    ## proj4string:    +proj=longlat +datum=WGS84 +no_defs

``` r
afghanistan 
```

    ## # A tibble: 6,645 x 12
    ## # Groups:   shapefile_name [1]
    ##    OBJECTID      ID_ NAME1_ NAME2_ PARTS_ POINTS_   LENGTH_ CLASS
    ##       <int>   <fctr> <fctr> <fctr>  <int>   <int>     <dbl> <int>
    ##  1        1 AFG33230     R1     NA      1       5  0.438227     1
    ##  2        2 AFG23694    H-R   1385      1     170 30.051210     1
    ##  3        3 AFG24159    H-R   1785      1     135 20.794200     2
    ##  4        4     A-93    R-A   1583      1      37  9.424366     1
    ##  5        5     A-89    R-A   1482      1      54 12.570490     1
    ##  6        6     A-81    R-A   1378      1       2  0.157600     3
    ##  7        7     A-87    R-A   1377      1      89 13.149750     1
    ##  8        8     A-88    R-A   1381      1      17  3.001055     2
    ##  9        9     A-86    R-A   1481      1      11  3.426427     2
    ## 10       10     A-80    R-A   1681      1     148 37.295630     1
    ## # ... with 6,635 more rows, and 4 more variables: Shape_Leng <dbl>,
    ## #   geometry <S3: sfc_GEOMETRY>, shapefile_name <chr>, resource_id <chr>
